LOAD LIBNEURAY.SO OK 
dlsym OK
  0.0   API    misc info : Loaded "/root/tmp/inria/iray-296300.2288_linux_only/linux-x86-64/lib/libneuray.so"
  0.0   API    misc info : Iray 2017.1, build 296300.2288, 27 Sep 2017, linux-x86-64-gcc4
  0.0   PLUG   plug info : Loaded library "/root/tmp/inria/iray-296300.2288_linux_only/linux-x86-64/lib/nv_freeimage.so".
  0.0   PLUG   plug info : Loaded library "/root/tmp/inria/iray-296300.2288_linux_only/linux-x86-64/lib/libiray.so".
  0.0   PLUG   plug info : Loaded library "/root/tmp/inria/iray-296300.2288_linux_only/linux-x86-64/lib/mi_importer.so".
  0.1   CUDA   rend info : Found 8 CUDA devices.
  0.1   CLUSTR net  info : Networking is switched off.
  1.1   FREIMG img  info : Plugin "fi_bmp" (build 296300.2288, 27 Sep 2017) initialized
  1.1   FREIMG img  info : Plugin "fi_cut" (build 296300.2288, 27 Sep 2017) initialized
  1.1   FREIMG img  info : Plugin "fi_dds" (build 296300.2288, 27 Sep 2017) initialized
  1.1   FREIMG img  info : Plugin "fi_exr" (build 296300.2288, 27 Sep 2017) initialized
  1.1   FREIMG img  info : Plugin "fi_faxg3" (build 296300.2288, 27 Sep 2017) initialized
  1.1   FREIMG img  info : Plugin "fi_gif" (build 296300.2288, 27 Sep 2017) initialized
  1.1   FREIMG img  info : Plugin "fi_hdr" (build 296300.2288, 27 Sep 2017) initialized
  1.1   FREIMG img  info : Plugin "fi_ico" (build 296300.2288, 27 Sep 2017) initialized
  1.1   FREIMG img  info : Plugin "fi_j2k" (build 296300.2288, 27 Sep 2017) initialized
  1.1   FREIMG img  info : Plugin "fi_jng" (build 296300.2288, 27 Sep 2017) initialized
  1.1   FREIMG img  info : Plugin "fi_jp2" (build 296300.2288, 27 Sep 2017) initialized
  1.1   FREIMG img  info : Plugin "fi_jpg" (build 296300.2288, 27 Sep 2017) initialized
  1.1   FREIMG img  info : Plugin "fi_koala" (build 296300.2288, 27 Sep 2017) initialized
  1.1   FREIMG img  info : Plugin "fi_lbm" (build 296300.2288, 27 Sep 2017) initialized
  1.1   FREIMG img  info : Plugin "fi_pbm" (build 296300.2288, 27 Sep 2017) initialized
  1.1   FREIMG img  info : Plugin "fi_pcd" (build 296300.2288, 27 Sep 2017) initialized
  1.1   FREIMG img  info : Plugin "fi_pcx" (build 296300.2288, 27 Sep 2017) initialized
  1.1   FREIMG img  info : Plugin "fi_pfm" (build 296300.2288, 27 Sep 2017) initialized
  1.1   FREIMG img  info : Plugin "fi_pict" (build 296300.2288, 27 Sep 2017) initialized
  1.1   FREIMG img  info : Plugin "fi_png" (build 296300.2288, 27 Sep 2017) initialized
  1.1   FREIMG img  info : Plugin "fi_psd" (build 296300.2288, 27 Sep 2017) initialized
  1.1   FREIMG img  info : Plugin "fi_ras" (build 296300.2288, 27 Sep 2017) initialized
  1.1   FREIMG img  info : Plugin "fi_sgi" (build 296300.2288, 27 Sep 2017) initialized
  1.1   FREIMG img  info : Plugin "fi_targa" (build 296300.2288, 27 Sep 2017) initialized
  1.1   FREIMG img  info : Plugin "fi_tiff" (build 296300.2288, 27 Sep 2017) initialized
  1.1   FREIMG img  info : Plugin "fi_wbmp" (build 296300.2288, 27 Sep 2017) initialized
  1.1   FREIMG img  info : Plugin "fi_xpm" (build 296300.2288, 27 Sep 2017) initialized
  1.1   IRAY   rend info : Your NVIDIA driver supports CUDA version up to 9.1; iray requires CUDA version 9.0; all is good.
  1.1   IRAY   rend info : Using iray plugin version 4.7, build 296300.2288 n, 27 Sep 2017, linux-x86-64-gcc4.
  1.1   IRAY   rend info : CUDA device 0 (Quadro P6000): compute capability 6.1, 23.8765 GiB total, 23.1904 GiB available
  1.1   IRAY   rend info : CUDA device 1 (Quadro P6000): compute capability 6.1, 23.8765 GiB total, 23.1884 GiB available
  1.1   IRAY   rend info : CUDA device 2 (Quadro P6000): compute capability 6.1, 23.8765 GiB total, 23.1884 GiB available
  1.1   IRAY   rend info : CUDA device 3 (Quadro P6000): compute capability 6.1, 23.8765 GiB total, 23.1884 GiB available
  1.1   IRAY   rend info : CUDA device 4 (Quadro P6000): compute capability 6.1, 23.8765 GiB total, 23.1884 GiB available
  1.1   IRAY   rend info : CUDA device 5 (Quadro P6000): compute capability 6.1, 23.8765 GiB total, 23.1884 GiB available
  1.1   IRAY   rend info : CUDA device 6 (Quadro P6000): compute capability 6.1, 23.8765 GiB total, 23.1884 GiB available
  1.1   IRAY   rend info : CUDA device 7 (Quadro P6000): compute capability 6.1, 23.8765 GiB total, 23.1884 GiB available
  1.1   IRAY   rend info : iray photoreal CPU fallback is enabled.
  1.1   IRAY   rend stat : Environment cache size capacity: 5.
  1.1   EIMI   io   info : Plugin ".mi importer" (build 296300.2288, 27 Sep 2017) initialized
  1.0   SCENE  io   info : Loading module "::nvidia::core_definitions" from "/root/tmp/inria/iray-296300.2288_linux_only/mdl/nvidia/core_definitions.mdl".
  1.0   SCENE  io   info : Loading module "::main" from "/root/tmp/inria/MRF/apps/iray renderer/../../mdl/main.mdl".
  1.0   MDLC   comp warn : The file path 'wells6_hd.hdr' is only found via the resource search paths, not via the module search paths. This is deprecated.
  1.0   IMAGE  io   info : Loading image "/root/tmp/inria/MRF/apps/iray renderer/../../assets/envmaps/wells6_hd.hdr", pixel type "Rgb_fp", 1000x500x1 pixels, 1 miplevel.
  1.0   SCENE  io   info : Loading module "::mrf_lights" from "/root/tmp/inria/MRF/apps/iray renderer/../../mdl/mrf_lights.mdl".
 OBJ Scene 
 { Nb vertices: 0 Nb Normals: 0 Nb Texture Coordinates: 0 Nb Materials: 0 Number of named objects: 0 Number of faces: 0
 The scene has 0 non-triangular faces. 
 Number of faces from materials:  0
 } 

 OBJ Scene 
 { Nb vertices: 0 Nb Normals: 0 Nb Texture Coordinates: 0 Nb Materials: 0 Number of named objects: 0 Number of faces: 0
 The scene has 0 non-triangular faces. 
 Number of faces from materials:  0
 } 

[INFO] Linearization of the OBJ File completed 
[INFO]  Positions size: 0 Normals size: 0 Uvs size: 0
[INFO]  Faces size: 0 which is equivalent to 0 triangles. 
[INFO] Material per faces size = 0 Materials size: 0 Material Strides size: 0
[INFO] Number of normals required: 0
[INFO] Number of normals recomputed:0
 [INFO] COMPUTING INTIAL TANGENTS FROM NORMALS 
[INFO] Checking Normal and Tangent Orthogonality in Mesh.cxx 
 OBJ Scene 
 { Nb vertices: 0 Nb Normals: 0 Nb Texture Coordinates: 0 Nb Materials: 0 Number of named objects: 0 Number of faces: 0
 The scene has 0 non-triangular faces. 
 Number of faces from materials:  0
 } 

 OBJ Scene 
 { Nb vertices: 0 Nb Normals: 0 Nb Texture Coordinates: 0 Nb Materials: 0 Number of named objects: 0 Number of faces: 0
 The scene has 0 non-triangular faces. 
 Number of faces from materials:  0
 } 

[INFO] Linearization of the OBJ File completed 
[INFO]  Positions size: 0 Normals size: 0 Uvs size: 0
[INFO]  Faces size: 0 which is equivalent to 0 triangles. 
[INFO] Material per faces size = 0 Materials size: 0 Material Strides size: 0
[INFO] Number of normals required: 0
[INFO] Number of normals recomputed:0
 [INFO] COMPUTING INTIAL TANGENTS FROM NORMALS 
[INFO] Checking Normal and Tangent Orthogonality in Mesh.cxx 
 OBJ Scene 
 { Nb vertices: 4 Nb Normals: 1 Nb Texture Coordinates: 0 Nb Materials: 0 Number of named objects: 1 Number of faces: 2
 The scene has 0 non-triangular faces. 
 Number of faces from materials:  0
 } 

 OBJ Scene 
 { Nb vertices: 4 Nb Normals: 1 Nb Texture Coordinates: 0 Nb Materials: 0 Number of named objects: 1 Number of faces: 2
 The scene has 0 non-triangular faces. 
 Number of faces from materials:  0
 } 

[INFO] Linearization of the OBJ File completed 
[INFO]  Positions size: 4 Normals size: 4 Uvs size: 4
[INFO]  Faces size: 6 which is equivalent to 2 triangles. 
[INFO] Material per faces size = 0 Materials size: 0 Material Strides size: 0
[INFO] Number of normals required: 4
[INFO] Number of normals recomputed:0
 [INFO] COMPUTING INTIAL TANGENTS FROM NORMALS 
[INFO] Checking Normal and Tangent Orthogonality in Mesh.cxx 
 [WARN] 4/4 invalid normals detected and corrected 
 [WARN] 4/4 invalid tangents detected and corrected 
 OBJ Scene 
 { Nb vertices: 4 Nb Normals: 1 Nb Texture Coordinates: 0 Nb Materials: 0 Number of named objects: 1 Number of faces: 2
 The scene has 0 non-triangular faces. 
 Number of faces from materials:  0
 } 

 OBJ Scene 
 { Nb vertices: 4 Nb Normals: 1 Nb Texture Coordinates: 0 Nb Materials: 0 Number of named objects: 1 Number of faces: 2
 The scene has 0 non-triangular faces. 
 Number of faces from materials:  0
 } 

[INFO] Linearization of the OBJ File completed 
[INFO]  Positions size: 4 Normals size: 4 Uvs size: 4
[INFO]  Faces size: 6 which is equivalent to 2 triangles. 
[INFO] Material per faces size = 0 Materials size: 0 Material Strides size: 0
[INFO] Number of normals required: 4
[INFO] Number of normals recomputed:0
 [INFO] COMPUTING INTIAL TANGENTS FROM NORMALS 
[INFO] Checking Normal and Tangent Orthogonality in Mesh.cxx 
 [WARN] 4/4 invalid normals detected and corrected 
 [WARN] 4/4 invalid tangents detected and corrected 
 OBJ Scene 
 { Nb vertices: 258 Nb Normals: 98 Nb Texture Coordinates: 0 Nb Materials: 0 Number of named objects: 1 Number of faces: 512
 The scene has 0 non-triangular faces. 
 Number of faces from materials:  0
 } 

 OBJ Scene 
 { Nb vertices: 258 Nb Normals: 98 Nb Texture Coordinates: 0 Nb Materials: 0 Number of named objects: 1 Number of faces: 512
 The scene has 0 non-triangular faces. 
 Number of faces from materials:  0
 } 

[INFO] Linearization of the OBJ File completed 
[INFO]  Positions size: 258 Normals size: 258 Uvs size: 258
[INFO]  Faces size: 1536 which is equivalent to 512 triangles. 
[INFO] Material per faces size = 0 Materials size: 0 Material Strides size: 0
[INFO] Number of normals required: 258
[INFO] Number of normals recomputed:0
 [INFO] COMPUTING INTIAL TANGENTS FROM NORMALS 
[INFO] Checking Normal and Tangent Orthogonality in Mesh.cxx 
 [WARN] 144/258 invalid normals detected and corrected 
 [WARN] 132/258 invalid tangents detected and corrected 
 OBJ Scene 
 { Nb vertices: 2704 Nb Normals: 2704 Nb Texture Coordinates: 0 Nb Materials: 0 Number of named objects: 1 Number of faces: 5202
 The scene has 0 non-triangular faces. 
 Number of faces from materials:  0
 } 

 OBJ Scene 
 { Nb vertices: 2704 Nb Normals: 2704 Nb Texture Coordinates: 0 Nb Materials: 0 Number of named objects: 1 Number of faces: 5202
 The scene has 0 non-triangular faces. 
 Number of faces from materials:  0
 } 

[INFO] Linearization of the OBJ File completed 
[INFO]  Positions size: 2704 Normals size: 2704 Uvs size: 2704
[INFO]  Faces size: 15606 which is equivalent to 5202 triangles. 
[INFO] Material per faces size = 0 Materials size: 0 Material Strides size: 0
[INFO] Number of normals required: 2704
[INFO] Number of normals recomputed:0
 [INFO] COMPUTING INTIAL TANGENTS FROM NORMALS 
[INFO] Checking Normal and Tangent Orthogonality in Mesh.cxx 
 [WARN] 2150/2704 invalid normals detected and corrected 
 [WARN] 1450/2704 invalid tangents detected and corrected 
 OBJ Scene 
 { Nb vertices: 4 Nb Normals: 1 Nb Texture Coordinates: 0 Nb Materials: 0 Number of named objects: 1 Number of faces: 2
 The scene has 0 non-triangular faces. 
 Number of faces from materials:  0
 } 

 OBJ Scene 
 { Nb vertices: 4 Nb Normals: 1 Nb Texture Coordinates: 0 Nb Materials: 0 Number of named objects: 1 Number of faces: 2
 The scene has 0 non-triangular faces. 
 Number of faces from materials:  0
 } 

[INFO] Linearization of the OBJ File completed 
[INFO]  Positions size: 4 Normals size: 4 Uvs size: 4
[INFO]  Faces size: 6 which is equivalent to 2 triangles. 
[INFO] Material per faces size = 0 Materials size: 0 Material Strides size: 0
[INFO] Number of normals required: 4
[INFO] Number of normals recomputed:0
 [INFO] COMPUTING INTIAL TANGENTS FROM NORMALS 
[INFO] Checking Normal and Tangent Orthogonality in Mesh.cxx 
 OBJ Scene 
 { Nb vertices: 0 Nb Normals: 0 Nb Texture Coordinates: 0 Nb Materials: 0 Number of named objects: 0 Number of faces: 0
 The scene has 0 non-triangular faces. 
 Number of faces from materials:  0
 } 

 OBJ Scene 
 { Nb vertices: 0 Nb Normals: 0 Nb Texture Coordinates: 0 Nb Materials: 0 Number of named objects: 0 Number of faces: 0
 The scene has 0 non-triangular faces. 
 Number of faces from materials:  0
 } 

[INFO] Linearization of the OBJ File completed 
[INFO]  Positions size: 0 Normals size: 0 Uvs size: 0
[INFO]  Faces size: 0 which is equivalent to 0 triangles. 
[INFO] Material per faces size = 0 Materials size: 0 Material Strides size: 0
[INFO] Number of normals required: 0
[INFO] Number of normals recomputed:0
 [INFO] COMPUTING INTIAL TANGENTS FROM NORMALS 
[INFO] Checking Normal and Tangent Orthogonality in Mesh.cxx 
 OBJ Scene 
 { Nb vertices: 482 Nb Normals: 482 Nb Texture Coordinates: 0 Nb Materials: 0 Number of named objects: 1 Number of faces: 960
 The scene has 0 non-triangular faces. 
 Number of faces from materials:  0
 } 

 OBJ Scene 
 { Nb vertices: 482 Nb Normals: 482 Nb Texture Coordinates: 0 Nb Materials: 0 Number of named objects: 1 Number of faces: 960
 The scene has 0 non-triangular faces. 
 Number of faces from materials:  0
 } 

[INFO] Linearization of the OBJ File completed 
[INFO]  Positions size: 482 Normals size: 482 Uvs size: 482
[INFO]  Faces size: 2880 which is equivalent to 960 triangles. 
[INFO] Material per faces size = 0 Materials size: 0 Material Strides size: 0
[INFO] Number of normals required: 482
[INFO] Number of normals recomputed:0
 [INFO] COMPUTING INTIAL TANGENTS FROM NORMALS 
[INFO] Checking Normal and Tangent Orthogonality in Mesh.cxx 
 [WARN] 339/482 invalid normals detected and corrected 
 [WARN] 384/482 invalid tangents detected and corrected 
 OBJ Scene 
 { Nb vertices: 0 Nb Normals: 0 Nb Texture Coordinates: 0 Nb Materials: 0 Number of named objects: 0 Number of faces: 0
 The scene has 0 non-triangular faces. 
 Number of faces from materials:  0
 } 

 OBJ Scene 
 { Nb vertices: 0 Nb Normals: 0 Nb Texture Coordinates: 0 Nb Materials: 0 Number of named objects: 0 Number of faces: 0
 The scene has 0 non-triangular faces. 
 Number of faces from materials:  0
 } 

[INFO] Linearization of the OBJ File completed 
[INFO]  Positions size: 0 Normals size: 0 Uvs size: 0
[INFO]  Faces size: 0 which is equivalent to 0 triangles. 
[INFO] Material per faces size = 0 Materials size: 0 Material Strides size: 0
[INFO] Number of normals required: 0
[INFO] Number of normals recomputed:0
 [INFO] COMPUTING INTIAL TANGENTS FROM NORMALS 
[INFO] Checking Normal and Tangent Orthogonality in Mesh.cxx 
 OBJ Scene 
 { Nb vertices: 0 Nb Normals: 0 Nb Texture Coordinates: 0 Nb Materials: 0 Number of named objects: 0 Number of faces: 0
 The scene has 0 non-triangular faces. 
 Number of faces from materials:  0
 } 

 OBJ Scene 
 { Nb vertices: 0 Nb Normals: 0 Nb Texture Coordinates: 0 Nb Materials: 0 Number of named objects: 0 Number of faces: 0
 The scene has 0 non-triangular faces. 
 Number of faces from materials:  0
 } 

[INFO] Linearization of the OBJ File completed 
[INFO]  Positions size: 0 Normals size: 0 Uvs size: 0
[INFO]  Faces size: 0 which is equivalent to 0 triangles. 
[INFO] Material per faces size = 0 Materials size: 0 Material Strides size: 0
[INFO] Number of normals required: 0
[INFO] Number of normals recomputed:0
 [INFO] COMPUTING INTIAL TANGENTS FROM NORMALS 
[INFO] Checking Normal and Tangent Orthogonality in Mesh.cxx 
 OBJ Scene 
 { Nb vertices: 0 Nb Normals: 0 Nb Texture Coordinates: 0 Nb Materials: 0 Number of named objects: 0 Number of faces: 0
 The scene has 0 non-triangular faces. 
 Number of faces from materials:  0
 } 

 OBJ Scene 
 { Nb vertices: 0 Nb Normals: 0 Nb Texture Coordinates: 0 Nb Materials: 0 Number of named objects: 0 Number of faces: 0
 The scene has 0 non-triangular faces. 
 Number of faces from materials:  0
 } 

[INFO] Linearization of the OBJ File completed 
[INFO]  Positions size: 0 Normals size: 0 Uvs size: 0
[INFO]  Faces size: 0 which is equivalent to 0 triangles. 
[INFO] Material per faces size = 0 Materials size: 0 Material Strides size: 0
[INFO] Number of normals required: 0
[INFO] Number of normals recomputed:0
 [INFO] COMPUTING INTIAL TANGENTS FROM NORMALS 
[INFO] Checking Normal and Tangent Orthogonality in Mesh.cxx 
 OBJ Scene 
 { Nb vertices: 4 Nb Normals: 1 Nb Texture Coordinates: 0 Nb Materials: 0 Number of named objects: 1 Number of faces: 2
 The scene has 0 non-triangular faces. 
 Number of faces from materials:  0
 } 

 OBJ Scene 
 { Nb vertices: 4 Nb Normals: 1 Nb Texture Coordinates: 0 Nb Materials: 0 Number of named objects: 1 Number of faces: 2
 The scene has 0 non-triangular faces. 
 Number of faces from materials:  0
 } 

[INFO] Linearization of the OBJ File completed 
[INFO]  Positions size: 4 Normals size: 4 Uvs size: 4
[INFO]  Faces size: 6 which is equivalent to 2 triangles. 
[INFO] Material per faces size = 0 Materials size: 0 Material Strides size: 0
[INFO] Number of normals required: 4
[INFO] Number of normals recomputed:0
 [INFO] COMPUTING INTIAL TANGENTS FROM NORMALS 
[INFO] Checking Normal and Tangent Orthogonality in Mesh.cxx 
 ************************ INFO ************************** 
  Time to load scene  :0.182823 seconds 
 ******************************************************** 

 INSIDE /root/tmp/inria/MRF/apps/iray renderer/../../mrf/rendering/thin_lens_camera.hpp 201
 _sensor Distance = 0.0362694
 Right Axis =  [ 1; 1.65691e-17; -2.92156e-18 ]   Up =  [ -1.68247e-17; 0.984808; -0.173648 ]   Normalized Optical Axis =  [ 0; -0.173648; -0.984808 ] 
Color background not yet supported in IRAY BACKEND
Option 0 scheduler_mode String = batch
Option 1 min_samples_per_update Uint32 = 1
Option 2 batch_update_interval Float32 = 1e+36
Option 3 interactive_update_interval Float32 = 0.0166667
Option 4 ui_responsiveness Float32 = 0.166667
  1.0   IRAY   rend info : Updating geometry.
  1.0   IRAY   rend info : Using OptiX Prime ray tracing (3.9.2).
  1.0   IRAY   rend info : Importing scene graph.
  1.0   IRAY   rend info : Importing geometry for motion time 0
  1.0   IRAY   rend info : Geometry import (1 object with 6682 triangles, 1 instance yielding 6682 triangles) took 0.001117
  1.0   IRAY   rend info : Updating materials.
  1.0   MATCNV rend info : found 1 textures, 0 lambdas (0 unique)
  1.0   IRAY   rend info : Emitter geometry import (4 light sources with 8 triangles, 1 instance) took 0.00s
  1.0   IRAY   rend info : Updating environment.
  1.0   IRAY   rend info : Updating backplate.
  1.0   IRAY   rend info : Updating lens.
  1.0   IRAY   rend info : Updating lights.
  1.0   IRAY   rend info : Updating object flags.
  1.0   IRAY   rend info : Updating caustic portals.
  1.0   IRAY   rend info : Updating decals.
  1.0   IRAY   rend info : Allocating 1-layer frame buffer
  1.0   IRAY   rend info : Using batch scheduling, caustic sampler disabled
  1.0   IRAY   rend info : Initializing local rendering.
  1.0   IRAY   rend info : CPU: using 72 cores for rendering
  1.0   IRAY   rend info : Rendering with 9 device(s):
  1.0   IRAY   rend info : 	CUDA device 0 (Quadro P6000)
  1.0   IRAY   rend info : 	CUDA device 1 (Quadro P6000)
  1.0   IRAY   rend info : 	CUDA device 2 (Quadro P6000)
  1.0   IRAY   rend info : 	CUDA device 3 (Quadro P6000)
  1.0   IRAY   rend info : 	CUDA device 4 (Quadro P6000)
  1.0   IRAY   rend info : 	CUDA device 5 (Quadro P6000)
  1.0   IRAY   rend info : 	CUDA device 6 (Quadro P6000)
  1.0   IRAY   rend info : 	CUDA device 7 (Quadro P6000)
  1.0   IRAY   rend info : 	CPU
  1.0   IRAY   rend info : Rendering...
  1.8   IRAY   rend progr: CUDA device 1 (Quadro P6000): Processing scene...
  1.6   IRAY   rend progr: CUDA device 0 (Quadro P6000): Processing scene...
  1.13  IRAY   rend progr: CUDA device 2 (Quadro P6000): Processing scene...
  1.16  IRAY   rend progr: CUDA device 7 (Quadro P6000): Processing scene...
  1.7   IRAY   rend progr: CUDA device 3 (Quadro P6000): Processing scene...
  1.35  IRAY   rend progr: CUDA device 4 (Quadro P6000): Processing scene...
  1.34  IRAY   rend progr: CUDA device 5 (Quadro P6000): Processing scene...
  1.29  IRAY   rend progr: CUDA device 6 (Quadro P6000): Processing scene...
  1.79  IRAY   rend progr: CPU: Processing scene...
  1.73  IRAY   rend info : Using device 0 to build data for host
  1.67  IRAY   rend stat : Geometry memory consumption: 187.344 KiB (device 2), 0 B (host)
  1.27  IRAY   rend stat : Geometry memory consumption: 187.344 KiB (device 6), 0 B (host)
  1.77  IRAY   rend stat : Geometry memory consumption: 187.344 KiB (device 7), 0 B (host)
  1.22  IRAY   rend stat : Geometry memory consumption: 187.344 KiB (device 3), 0 B (host)
  1.4   IRAY   rend stat : Geometry memory consumption: 187.344 KiB (device 1), 0 B (host)
  1.9   IRAY   rend stat : Geometry memory consumption: 187.344 KiB (device 0), 0 B (host)
  1.72  IRAY   rend stat : Geometry memory consumption: 187.344 KiB (device 5), 0 B (host)
  1.28  IRAY   rend stat : Geometry memory consumption: 187.344 KiB (device 4), 0 B (host)
  1.27  IRAY   rend stat : Texture memory consumption: 0 B for 0 bitmaps (device 6)
  1.27  IRAY   rend info : Importing lights for motion time 0
  1.27  IRAY   rend info : Initializing light hierarchy.
  1.27  IRAY   rend info : Light hierarchy initialization took 0.00s
  1.4   IRAY   rend stat : Texture memory consumption: 0 B for 0 bitmaps (device 1)
  1.22  IRAY   rend stat : Texture memory consumption: 0 B for 0 bitmaps (device 3)
  1.9   IRAY   rend stat : Texture memory consumption: 0 B for 0 bitmaps (device 0)
  1.67  IRAY   rend stat : Texture memory consumption: 0 B for 0 bitmaps (device 2)
  1.72  IRAY   rend stat : Texture memory consumption: 0 B for 0 bitmaps (device 5)
  1.77  IRAY   rend stat : Texture memory consumption: 0 B for 0 bitmaps (device 7)
  1.28  IRAY   rend stat : Texture memory consumption: 0 B for 0 bitmaps (device 4)
  1.27  IRAY   rend stat : Lights memory consumption: 3.31641 KiB (device 6)
  1.4   IRAY   rend stat : Lights memory consumption: 3.31641 KiB (device 1)
  1.22  IRAY   rend stat : Lights memory consumption: 3.31641 KiB (device 3)
  1.9   IRAY   rend stat : Lights memory consumption: 3.31641 KiB (device 0)
  1.67  IRAY   rend stat : Lights memory consumption: 3.31641 KiB (device 2)
  1.72  IRAY   rend stat : Lights memory consumption: 3.31641 KiB (device 5)
  1.77  IRAY   rend stat : Lights memory consumption: 3.31641 KiB (device 7)
  1.28  IRAY   rend stat : Lights memory consumption: 3.31641 KiB (device 4)
  1.73  IRAY   rend stat : Native CPU code generated in 3.1e-06s
  1.27  IRAY   rend stat : Material measurement memory consumption: 0 B (GPU)
  1.27  IRAY   rend stat : Materials memory consumption: 28.4414 KiB (GPU)
  1.79  IRAY   rend info : CPU: Scene processed in 0.157s
  1.79  IRAY   rend info : CPU: Allocated 17.5783 MiB for frame buffer
  1.7   IRAY   rend info : CUDA device 3 (Quadro P6000): Scene processed in 0.337s
  1.7   IRAY   rend info : CUDA device 3 (Quadro P6000): Allocated 17.5783 MiB for frame buffer
  1.7   IRAY   rend info : CUDA device 3 (Quadro P6000): Allocated 1.6875 GiB of work space (2048k active samples in 0.015s)
  1.8   IRAY   rend info : CUDA device 1 (Quadro P6000): Scene processed in 0.358s
  1.8   IRAY   rend info : CUDA device 1 (Quadro P6000): Allocated 17.5783 MiB for frame buffer
  1.6   IRAY   rend info : CUDA device 0 (Quadro P6000): Scene processed in 0.374s
  1.8   IRAY   rend info : CUDA device 1 (Quadro P6000): Allocated 1.6875 GiB of work space (2048k active samples in 0.013s)
  1.6   IRAY   rend info : CUDA device 0 (Quadro P6000): Allocated 17.5783 MiB for frame buffer
  1.16  IRAY   rend info : CUDA device 7 (Quadro P6000): Scene processed in 0.390s
  1.6   IRAY   rend info : CUDA device 0 (Quadro P6000): Allocated 1.6875 GiB of work space (2048k active samples in 0.025s)
  1.16  IRAY   rend info : CUDA device 7 (Quadro P6000): Allocated 17.5783 MiB for frame buffer
  1.13  IRAY   rend info : CUDA device 2 (Quadro P6000): Scene processed in 0.415s
  1.16  IRAY   rend info : CUDA device 7 (Quadro P6000): Allocated 1.6875 GiB of work space (2048k active samples in 0.024s)
  1.13  IRAY   rend info : CUDA device 2 (Quadro P6000): Allocated 17.5783 MiB for frame buffer
  1.29  IRAY   rend info : CUDA device 6 (Quadro P6000): Scene processed in 0.433s
  1.34  IRAY   rend info : CUDA device 5 (Quadro P6000): Scene processed in 0.449s
  1.29  IRAY   rend info : CUDA device 6 (Quadro P6000): Allocated 17.5783 MiB for frame buffer
  1.13  IRAY   rend info : CUDA device 2 (Quadro P6000): Allocated 1.6875 GiB of work space (2048k active samples in 0.031s)
  1.34  IRAY   rend info : CUDA device 5 (Quadro P6000): Allocated 17.5783 MiB for frame buffer
  1.79  IRAY   rend info : Allocating 1-layer frame buffer
  1.35  IRAY   rend info : CUDA device 4 (Quadro P6000): Scene processed in 0.480s
  1.29  IRAY   rend info : CUDA device 6 (Quadro P6000): Allocated 1.6875 GiB of work space (2048k active samples in 0.018s)
  1.0   IRAY   rend info : Received update to 00001 iterations after 0.488s.
  1.34  IRAY   rend info : CUDA device 5 (Quadro P6000): Allocated 1.6875 GiB of work space (2048k active samples in 0.022s)
  1.35  IRAY   rend info : CUDA device 4 (Quadro P6000): Allocated 17.5783 MiB for frame buffer
  1.0   IRAY   rend info : Received update to 00002 iterations after 0.510s.
  1.35  IRAY   rend info : CUDA device 4 (Quadro P6000): Allocated 1.6875 GiB of work space (2048k active samples in 0.026s)
  1.0   IRAY   rend info : Received update to 00003 iterations after 0.537s.
  1.0   IRAY   rend info : Received update to 00004 iterations after 0.575s.
  1.0   IRAY   rend info : Received update to 00005 iterations after 0.585s.
  1.0   IRAY   rend info : Received update to 00006 iterations after 0.606s.
  1.0   IRAY   rend info : Received update to 00007 iterations after 0.622s.
  1.0   IRAY   rend info : Received update to 00008 iterations after 0.644s.
  1.0   IRAY   rend info : Received update to 00009 iterations after 0.656s.
  1.0   IRAY   rend info : Received update to 00010 iterations after 0.671s.
  1.0   IRAY   rend info : Received update to 00011 iterations after 0.682s.
  1.0   IRAY   rend info : Received update to 00012 iterations after 0.713s.
  1.0   IRAY   rend info : Received update to 00013 iterations after 0.750s.
  1.0   IRAY   rend info : Received update to 00014 iterations after 0.762s.
  1.0   IRAY   rend info : Received update to 00016 iterations after 0.783s.
  1.0   IRAY   rend info : Received update to 00017 iterations after 0.812s.
  1.0   IRAY   rend info : Received update to 00020 iterations after 0.857s.
  1.0   IRAY   rend info : Received update to 00022 iterations after 0.867s.
  1.0   IRAY   rend info : Received update to 00024 iterations after 0.896s.
  1.0   IRAY   rend info : Received update to 00026 iterations after 0.931s.
  1.0   IRAY   rend info : Received update to 00028 iterations after 0.962s.
  1.0   IRAY   rend info : Received update to 00034 iterations after 1.126s.
  1.0   IRAY   rend info : Received update to 00038 iterations after 1.171s.
  1.0   IRAY   rend info : Received update to 00042 iterations after 1.179s.
  1.0   IRAY   rend info : Received update to 00046 iterations after 1.212s.
  1.0   IRAY   rend info : Received update to 00050 iterations after 1.245s.
  1.0   IRAY   rend info : Received update to 00054 iterations after 1.274s.
  1.0   IRAY   rend info : Received update to 00062 iterations after 1.715s.
  1.0   IRAY   rend info : Received update to 00070 iterations after 1.760s.
  1.0   IRAY   rend info : Received update to 00078 iterations after 1.775s.
  1.0   IRAY   rend info : Received update to 00086 iterations after 1.804s.
  1.0   IRAY   rend info : Received update to 00094 iterations after 1.824s.
  1.0   IRAY   rend info : Received update to 00102 iterations after 1.877s.
  1.0   IRAY   rend info : Received update to 00118 iterations after 2.848s.
  1.0   IRAY   rend info : Received update to 00134 iterations after 2.858s.
  1.0   IRAY   rend info : Received update to 00150 iterations after 2.919s.
  1.0   IRAY   rend info : Received update to 00166 iterations after 2.952s.
  1.0   IRAY   rend info : Received update to 00182 iterations after 3.041s.
  1.0   IRAY   rend info : Received update to 00244 iterations after 5.054s.
  1.0   IRAY   rend info : Received update to 00276 iterations after 5.064s.
  1.0   IRAY   rend info : Received update to 00308 iterations after 5.080s.
  1.0   IRAY   rend info : Received update to 00340 iterations after 5.117s.
  1.0   IRAY   rend info : Received update to 00402 iterations after 5.140s.
  1.0   IRAY   rend info : Received update to 00434 iterations after 5.204s.
  1.0   IRAY   rend info : Received update to 00498 iterations after 9.375s.
  1.0   IRAY   rend info : Received update to 00562 iterations after 9.418s.
  1.0   IRAY   rend info : Received update to 00658 iterations after 9.453s.
  1.0   IRAY   rend info : Received update to 00722 iterations after 9.464s.
  1.0   IRAY   rend info : Received update to 00834 iterations after 9.507s.
  1.0   IRAY   rend info : Received update to 00898 iterations after 9.524s.
  1.0   IRAY   rend info : Received update to 01090 iterations after 18.027s.
  1.0   IRAY   rend info : Received update to 01282 iterations after 18.067s.
  1.0   IRAY   rend info : Received update to 01410 iterations after 18.094s.
  1.0   IRAY   rend info : Received update to 01538 iterations after 18.143s.
  1.0   IRAY   rend info : Received update to 01666 iterations after 18.285s.
  1.0   IRAY   rend info : Received update to 02050 iterations after 35.292s.
  1.0   IRAY   rend info : Received update to 02434 iterations after 35.470s.
  1.0   IRAY   rend info : Received update to 02690 iterations after 35.555s.
  1.0   IRAY   rend info : Received update to 02946 iterations after 35.589s.
  1.0   IRAY   rend info : Received update to 03202 iterations after 35.923s.
  1.0   IRAY   rend info : Received update to 03458 iterations after 36.027s.
  1.0   IRAY   rend info : Received update to 03714 iterations after 36.057s.
  1.0   IRAY   rend info : Received update to 04226 iterations after 70.811s.
  1.0   IRAY   rend info : Received update to 04738 iterations after 70.844s.
  1.0   IRAY   rend info : Received update to 05250 iterations after 71.080s.
  1.0   IRAY   rend info : Received update to 06146 iterations after 71.219s.
  1.0   IRAY   rend info : Received update to 06658 iterations after 71.268s.
  1.0   IRAY   rend info : Received update to 07170 iterations after 71.638s.
  1.0   IRAY   rend info : Received update to 07682 iterations after 71.748s.
  1.0   IRAY   rend info : Received update to 08706 iterations after 142.138s.
  1.0   IRAY   rend info : Received update to 09730 iterations after 142.177s.
  1.0   IRAY   rend info : Received update to 10754 iterations after 142.312s.
  1.0   IRAY   rend info : Received update to 12290 iterations after 142.337s.
  1.0   IRAY   rend info : Received update to 13314 iterations after 142.955s.
  1.0   IRAY   rend info : Received update to 14338 iterations after 142.992s.
  1.0   IRAY   rend info : Received update to 15362 iterations after 143.131s.
  1.0   IRAY   rend info : Received update to 18434 iterations after 284.765s.
  1.0   IRAY   rend info : Received update to 20482 iterations after 285.295s.
  1.0   IRAY   rend info : Received update to 22530 iterations after 285.321s.
  1.0   IRAY   rend info : Received update to 24578 iterations after 285.803s.
  1.0   IRAY   rend info : Received update to 26626 iterations after 285.911s.
  1.0   IRAY   rend info : Received update to 28674 iterations after 286.290s.
  1.0   IRAY   rend info : Received update to 30722 iterations after 286.335s.
  1.0   IRAY   rend info : Received update to 32770 iterations after 286.456s.
  1.0   IRAY   rend info : Received update to 33733 iterations after 303.543s.
  1.0   IRAY   rend info : Received update to 35413 iterations after 403.491s.
  1.0   IRAY   rend info : Received update to 37144 iterations after 407.474s.
  1.0   IRAY   rend info : Received update to 38924 iterations after 410.607s.
  1.0   IRAY   rend info : Received update to 40756 iterations after 414.157s.
  1.0   IRAY   rend info : Received update to 41118 iterations after 417.297s.
  1.0   IRAY   rend info : Received update to 42998 iterations after 417.451s.
  1.0   IRAY   rend info : Received update to 44930 iterations after 420.512s.
  1.0   IRAY   rend info : Received update to 46911 iterations after 423.823s.
  1.0   IRAY   rend info : Received update to 48969 iterations after 429.003s.
  1.0   IRAY   rend info : Received update to 50578 iterations after 515.663s.
  1.0   IRAY   rend info : Received update to 52143 iterations after 516.514s.
  1.0   IRAY   rend info : Received update to 53528 iterations after 516.979s.
  1.0   IRAY   rend info : Received update to 55053 iterations after 517.087s.
  1.0   IRAY   rend info : Received update to 56481 iterations after 517.248s.
  1.0   IRAY   rend info : Received update to 56800 iterations after 517.493s.
  1.0   IRAY   rend info : Received update to 58139 iterations after 517.700s.
  1.0   IRAY   rend info : Received update to 59621 iterations after 518.030s.
  1.0   IRAY   rend info : Received update to 60912 iterations after 518.591s.
  1.0   IRAY   rend info : Received update to 61896 iterations after 587.209s.
  1.0   IRAY   rend info : Received update to 62911 iterations after 588.819s.
  1.0   IRAY   rend info : Received update to 63959 iterations after 590.580s.
  1.0   IRAY   rend info : Received update to 64193 iterations after 591.004s.
  1.0   IRAY   rend info : Received update to 65284 iterations after 593.129s.
  1.0   IRAY   rend info : Received update to 66413 iterations after 595.883s.
  1.0   IRAY   rend info : Received update to 67577 iterations after 598.664s.
  1.0   IRAY   rend info : Received update to 68778 iterations after 600.223s.
  1.0   IRAY   rend info : Received update to 70019 iterations after 602.524s.
  1.0   IRAY   rend info : Received update to 70213 iterations after 651.966s.
  1.0   IRAY   rend info : Received update to 71115 iterations after 653.046s.
  1.0   IRAY   rend info : Received update to 72040 iterations after 653.096s.
  1.0   IRAY   rend info : Received update to 72992 iterations after 653.258s.
  1.0   IRAY   rend info : Received update to 73863 iterations after 653.919s.
  1.0   IRAY   rend info : Received update to 74706 iterations after 654.818s.
  1.0   IRAY   rend info : Received update to 75494 iterations after 654.931s.
  1.0   IRAY   rend info : Received update to 76308 iterations after 655.454s.
  1.0   IRAY   rend info : Received update to 77066 iterations after 656.078s.
  1.0   IRAY   rend info : Received update to 77638 iterations after 695.976s.
  1.0   IRAY   rend info : Received update to 78233 iterations after 696.863s.
  1.0   IRAY   rend info : Received update to 78849 iterations after 697.679s.
  1.0   IRAY   rend info : Received update to 79483 iterations after 698.994s.
  1.0   IRAY   rend info : Received update to 80139 iterations after 699.883s.
  1.0   IRAY   rend info : Received update to 80821 iterations after 700.662s.
  1.0   IRAY   rend info : Received update to 81524 iterations after 701.883s.
  1.0   IRAY   rend info : Received update to 81685 iterations after 702.496s.
  1.0   IRAY   rend info : Received update to 82412 iterations after 703.534s.
  1.0   IRAY   rend info : Received update to 82511 iterations after 733.627s.
  1.0   IRAY   rend info : Received update to 82958 iterations after 734.164s.
  1.0   IRAY   rend info : Received update to 83455 iterations after 734.433s.
  1.0   IRAY   rend info : Received update to 83922 iterations after 734.507s.
  1.0   IRAY   rend info : Received update to 84466 iterations after 734.560s.
  1.0   IRAY   rend info : Received update to 85021 iterations after 734.619s.
  1.0   IRAY   rend info : Received update to 85535 iterations after 734.801s.
  1.0   IRAY   rend info : Received update to 86019 iterations after 735.011s.
  1.0   IRAY   rend info : Received update to 86368 iterations after 759.368s.
  1.0   IRAY   rend info : Received update to 86732 iterations after 759.955s.
  1.0   IRAY   rend info : Received update to 87109 iterations after 760.681s.
  1.0   IRAY   rend info : Received update to 88018 iterations after 760.856s.
  1.0   IRAY   rend info : Received update to 88410 iterations after 761.857s.
  1.0   IRAY   rend info : Received update to 88812 iterations after 762.257s.
  1.0   IRAY   rend info : Received update to 89226 iterations after 763.090s.
  1.0   IRAY   rend info : Received update to 89320 iterations after 763.190s.
  1.0   IRAY   rend info : Received update to 89749 iterations after 764.176s.
  1.0   IRAY   rend info : Received update to 89807 iterations after 781.448s.
  1.0   IRAY   rend info : Received update to 90080 iterations after 782.023s.
  1.0   IRAY   rend info : Received update to 90372 iterations after 782.282s.
  1.0   IRAY   rend info : Received update to 90632 iterations after 782.362s.
  1.0   IRAY   rend info : Received update to 90946 iterations after 782.538s.
  1.0   IRAY   rend info : Received update to 91279 iterations after 782.897s.
  1.0   IRAY   rend info : Received update to 91602 iterations after 783.216s.
  1.0   IRAY   rend info : Received update to 91814 iterations after 797.876s.
  1.0   IRAY   rend info : Received update to 92371 iterations after 798.118s.
  1.0   IRAY   rend info : Received update to 92593 iterations after 798.268s.
  1.0   IRAY   rend info : Received update to 92827 iterations after 798.414s.
  1.0   IRAY   rend info : Received update to 93056 iterations after 798.537s.
  1.0   IRAY   rend info : Received update to 93297 iterations after 798.784s.
  1.0   IRAY   rend info : Received update to 93828 iterations after 798.999s.
  1.0   IRAY   rend info : Received update to 94077 iterations after 799.319s.
  1.0   IRAY   rend info : Received update to 94227 iterations after 809.590s.
  1.0   IRAY   rend info : Received update to 94319 iterations after 810.349s.
  1.0   IRAY   rend info : Received update to 94489 iterations after 810.474s.
  1.0   IRAY   rend info : Received update to 94663 iterations after 810.560s.
  1.0   IRAY   rend info : Received update to 94844 iterations after 810.798s.
  1.0   IRAY   rend info : Received update to 95030 iterations after 811.216s.
  1.0   IRAY   rend info : Received update to 95229 iterations after 811.881s.
  1.0   IRAY   rend info : Received update to 95434 iterations after 812.092s.
  1.0   IRAY   rend info : Received update to 95579 iterations after 819.608s.
  1.0   IRAY   rend info : Received update to 95710 iterations after 819.794s.
  1.0   IRAY   rend info : Received update to 95835 iterations after 819.869s.
  1.0   IRAY   rend info : Received update to 95969 iterations after 819.949s.
  1.0   IRAY   rend info : Received update to 96207 iterations after 826.854s.
  1.0   IRAY   rend info : Received update to 96420 iterations after 826.928s.
  1.0   IRAY   rend info : Received update to 96640 iterations after 826.977s.
  1.0   IRAY   rend info : Received update to 97131 iterations after 833.038s.
  1.0   IRAY   rend info : Received update to 97324 iterations after 833.301s.
  1.0   IRAY   rend info : Received update to 97423 iterations after 833.762s.
  1.0   IRAY   rend info : Received update to 97585 iterations after 838.165s.
  1.0   IRAY   rend info : Received update to 97853 iterations after 838.371s.
  1.0   IRAY   rend info : Received update to 98126 iterations after 838.568s.
  1.0   IRAY   rend info : Received update to 98402 iterations after 838.598s.
  1.0   IRAY   rend info : Received update to 98572 iterations after 838.657s.
  1.0   IRAY   rend info : Received update to 98654 iterations after 838.703s.
  1.0   IRAY   rend info : Received update to 98700 iterations after 841.793s.
  1.0   IRAY   rend info : Received update to 98800 iterations after 841.898s.
  1.0   IRAY   rend info : Received update to 98852 iterations after 842.160s.
  1.0   IRAY   rend info : Received update to 98975 iterations after 842.298s.
  1.0   IRAY   rend info : Received update to 99034 iterations after 842.437s.
  1.0   IRAY   rend info : Received update to 99100 iterations after 843.430s.
  1.0   IRAY   rend info : Received update to 99171 iterations after 843.693s.
  1.0   IRAY   rend info : Received update to 99256 iterations after 844.058s.
  1.0   IRAY   rend info : Received update to 99413 iterations after 844.193s.
  1.0   IRAY   rend info : Received update to 99438 iterations after 844.209s.
  1.0   IRAY   rend info : Received update to 99467 iterations after 844.249s.
  1.0   IRAY   rend info : Received update to 99490 iterations after 845.056s.
  1.0   IRAY   rend info : Received update to 99511 iterations after 845.168s.
  1.0   IRAY   rend info : Received update to 99553 iterations after 845.261s.
  1.0   IRAY   rend info : Received update to 99604 iterations after 845.368s.
  1.0   IRAY   rend info : Received update to 99622 iterations after 845.466s.
  1.0   IRAY   rend info : Received update to 99636 iterations after 846.049s.
  1.0   IRAY   rend info : Received update to 99649 iterations after 846.098s.
  1.0   IRAY   rend info : Received update to 99663 iterations after 846.207s.
  1.0   IRAY   rend info : Received update to 99691 iterations after 846.254s.
  1.0   IRAY   rend info : Received update to 99705 iterations after 846.360s.
  1.0   IRAY   rend info : Received update to 99719 iterations after 846.463s.
  1.0   IRAY   rend info : Received update to 99753 iterations after 846.481s.
  1.0   IRAY   rend info : Received update to 99767 iterations after 847.046s.
  1.0   IRAY   rend info : Received update to 99809 iterations after 847.222s.
  1.0   IRAY   rend info : Received update to 99837 iterations after 847.261s.
  1.0   IRAY   rend info : Received update to 99851 iterations after 847.367s.
  1.0   IRAY   rend info : Received update to 99865 iterations after 847.465s.
  1.0   IRAY   rend info : Received update to 99879 iterations after 847.489s.
  1.0   IRAY   rend info : Received update to 99884 iterations after 847.850s.
  1.0   IRAY   rend info : Received update to 99890 iterations after 848.000s.
  1.0   IRAY   rend info : Received update to 99904 iterations after 848.036s.
  1.0   IRAY   rend info : Received update to 99931 iterations after 848.147s.
  1.0   IRAY   rend info : Received update to 99944 iterations after 848.154s.
  1.0   IRAY   rend info : Received update to 99958 iterations after 848.255s.
  1.0   IRAY   rend info : Received update to 99986 iterations after 848.308s.
  1.0   IRAY   rend info : Received update to 100000 iterations after 848.360s.
  1.0   IRAY   rend info : Maximum number of samples reached.
  1.0   IRAY   rend info : Rendering...
  1.0   IRAY   rend info : Received update to 100000 iterations after 848.375s.
  1.0   IRAY   rend info : Maximum number of samples reached.
Try to save Image in:test_clothe_10_5.png
  1.0   IMAGE  io   info : Saving image "test_clothe_10_5.png", pixel type "Rgba_16", 1280x720x1 pixels, 1 miplevel.
  1.0   IRAY   rend info : Device statistics:
  1.0   IRAY   rend info : CUDA device 0 (Quadro P6000): 	 12175 iterations, 0.529s init, 847.647s render
  1.0   IRAY   rend info : CUDA device 1 (Quadro P6000): 	 12165 iterations, 0.454s init, 847.913s render
  1.0   IRAY   rend info : CUDA device 2 (Quadro P6000): 	 12185 iterations, 0.550s init, 847.767s render
  1.0   IRAY   rend info : CUDA device 3 (Quadro P6000): 	 12136 iterations, 0.418s init, 847.070s render
  1.0   IRAY   rend info : CUDA device 4 (Quadro P6000): 	 12157 iterations, 0.608s init, 847.437s render
  1.0   IRAY   rend info : CUDA device 5 (Quadro P6000): 	 12158 iterations, 0.571s init, 847.283s render
  1.0   IRAY   rend info : CUDA device 6 (Quadro P6000): 	 12158 iterations, 0.580s init, 847.573s render
  1.0   IRAY   rend info : CUDA device 7 (Quadro P6000): 	 12169 iterations, 0.522s init, 847.741s render
  1.0   IRAY   rend info : CPU: 	 2697 iterations, 0.234s init, 847.761s render
  1.0   API    db   warn : Transaction is released without being committed or aborted. Automatically aborting.
