o tallblock


v 423.0 330.0 247.0
v 265.0 330.0 296.0
v 314.0 330.0 456.0
v 472.0 330.0 406.0

v 423.0   0.0 247.0
v 423.0 330.0 247.0
v 472.0 330.0 406.0
v 472.0   0.0 406.0

v 472.0   0.0 406.0
v 472.0 330.0 406.0
v 314.0 330.0 456.0
v 314.0   0.0 456.0

v 314.0   0.0 456.0
v 314.0 330.0 456.0
v 265.0 330.0 296.0
v 265.0   0.0 296.0

v 265.0   0.0 296.0
v 265.0 330.0 296.0
v 423.0 330.0 247.0
v 423.0   0.0 247.0

f 1 3 2
f 1 4 3

f 5 7 6
f 5 8 7

f 9 11 10    
f 9 12 11   

f 13 15 14    
f 13 16 15    

f 17 19 18    
f 17 20 19