  omp_get_max_threads()*2 = 2
LOAD LIBNEURAY.SO OK 
  0.0   API    misc info : Loaded "/home/adufay/iray/linux-x86-64/lib/libneuray.so"
  0.0   API    misc info : Iray 2017.1, build 296300.2288, 27 Sep 2017, linux-x86-64-gcc4
  0.0   PLUG   plug info : Loaded library "/home/adufay/iray/linux-x86-64/lib/nv_freeimage.so".
  0.0   PLUG   plug info : Loaded library "/home/adufay/iray/linux-x86-64/lib/libiray.so".
  0.0   PLUG   plug info : Loaded library "/home/adufay/iray/linux-x86-64/lib/mi_importer.so".
  0.1   CUDA   rend info : Found 2 CUDA devices.
  0.1   CLUSTR net  info : Networking is switched off.
  1.1   FREIMG img  info : Plugin "fi_bmp" (build 296300.2288, 27 Sep 2017) initialized
  1.1   FREIMG img  info : Plugin "fi_cut" (build 296300.2288, 27 Sep 2017) initialized
  1.1   FREIMG img  info : Plugin "fi_dds" (build 296300.2288, 27 Sep 2017) initialized
  1.1   FREIMG img  info : Plugin "fi_exr" (build 296300.2288, 27 Sep 2017) initialized
  1.1   FREIMG img  info : Plugin "fi_faxg3" (build 296300.2288, 27 Sep 2017) initialized
  1.1   FREIMG img  info : Plugin "fi_gif" (build 296300.2288, 27 Sep 2017) initialized
  1.1   FREIMG img  info : Plugin "fi_hdr" (build 296300.2288, 27 Sep 2017) initialized
  1.1   FREIMG img  info : Plugin "fi_ico" (build 296300.2288, 27 Sep 2017) initialized
  1.1   FREIMG img  info : Plugin "fi_j2k" (build 296300.2288, 27 Sep 2017) initialized
  1.1   FREIMG img  info : Plugin "fi_jng" (build 296300.2288, 27 Sep 2017) initialized
  1.1   FREIMG img  info : Plugin "fi_jp2" (build 296300.2288, 27 Sep 2017) initialized
  1.1   FREIMG img  info : Plugin "fi_jpg" (build 296300.2288, 27 Sep 2017) initialized
  1.1   FREIMG img  info : Plugin "fi_koala" (build 296300.2288, 27 Sep 2017) initialized
  1.1   FREIMG img  info : Plugin "fi_lbm" (build 296300.2288, 27 Sep 2017) initialized
  1.1   FREIMG img  info : Plugin "fi_pbm" (build 296300.2288, 27 Sep 2017) initialized
  1.1   FREIMG img  info : Plugin "fi_pcd" (build 296300.2288, 27 Sep 2017) initialized
  1.1   FREIMG img  info : Plugin "fi_pcx" (build 296300.2288, 27 Sep 2017) initialized
  1.1   FREIMG img  info : Plugin "fi_pfm" (build 296300.2288, 27 Sep 2017) initialized
  1.1   FREIMG img  info : Plugin "fi_pict" (build 296300.2288, 27 Sep 2017) initialized
  1.1   FREIMG img  info : Plugin "fi_png" (build 296300.2288, 27 Sep 2017) initialized
  1.1   FREIMG img  info : Plugin "fi_psd" (build 296300.2288, 27 Sep 2017) initialized
  1.1   FREIMG img  info : Plugin "fi_ras" (build 296300.2288, 27 Sep 2017) initialized
  1.1   FREIMG img  info : Plugin "fi_sgi" (build 296300.2288, 27 Sep 2017) initialized
  1.1   FREIMG img  info : Plugin "fi_targa" (build 296300.2288, 27 Sep 2017) initialized
  1.1   FREIMG img  info : Plugin "fi_tiff" (build 296300.2288, 27 Sep 2017) initialized
  1.1   FREIMG img  info : Plugin "fi_wbmp" (build 296300.2288, 27 Sep 2017) initialized
  1.1   FREIMG img  info : Plugin "fi_xpm" (build 296300.2288, 27 Sep 2017) initialized
  1.1   IRAY   rend info : Your NVIDIA driver supports CUDA version up to 9.0; iray requires CUDA version 9.0; all is good.
  1.1   IRAY   rend info : Using iray plugin version 4.7, build 296300.2288 n, 27 Sep 2017, linux-x86-64-gcc4.
  1.1   IRAY   rend info : CUDA device 0 (Tesla P100-PCIE-16GB): compute capability 6.0, 15.8948 GiB total, 15.6536 GiB available
  1.1   IRAY   rend warn : CUDA device 0 (Tesla P100-PCIE-16GB): ECC is enabled, this affects performance negatively (it is recommended to disable ECC with iray)
  1.1   IRAY   rend info : CUDA device 1 (Tesla P100-PCIE-16GB): compute capability 6.0, 15.8948 GiB total, 15.6536 GiB available
  1.1   IRAY   rend warn : CUDA device 1 (Tesla P100-PCIE-16GB): ECC is enabled, this affects performance negatively (it is recommended to disable ECC with iray)
  1.1   IRAY   rend info : iray photoreal CPU fallback is enabled.
  1.1   IRAY   rend stat : Environment cache size capacity: 5.
  1.1   EIMI   io   info : Plugin ".mi importer" (build 296300.2288, 27 Sep 2017) initialized
  1.0   SCENE  io   info : Loading module "::nvidia::core_definitions" from "/home/adufay/iray/mdl/nvidia/core_definitions.mdl".
  1.0   SCENE  io   info : Loading module "::main" from "/home/adufay/apps/iray renderer/../../mdl/main.mdl".
  1.0   MDLC   comp warn : The file path 'wells6_hd.hdr' is only found via the resource search paths, not via the module search paths. This is deprecated.
  1.0   IMAGE  io   info : Loading image "/home/adufay/apps/iray renderer/../../assets/envmaps/wells6_hd.hdr", pixel type "Rgb_fp", 1000x500x1 pixels, 1 miplevel.
  1.0   SCENE  io   info : Loading module "::mrf_lights" from "/home/adufay/apps/iray renderer/../../mdl/mrf_lights.mdl".
 OBJ Scene 
 { Nb vertices: 7609880 Nb Normals: 9187966 Nb Texture Coordinates: 0 Nb Materials: 0 Number of named objects: 1 Number of faces: 10495071
 The scene has 0 non-triangular faces. 
 Number of faces from materials:  0
 } 

 OBJ Scene 
 { Nb vertices: 7609880 Nb Normals: 9187966 Nb Texture Coordinates: 0 Nb Materials: 0 Number of named objects: 1 Number of faces: 10495071
 The scene has 0 non-triangular faces. 
 Number of faces from materials:  0
 } 

[INFO] Linearization of the OBJ File completed 
[INFO]  Positions size: 30686679 Normals size: 30686679 Uvs size: 30686679
[INFO]  Faces size: 31485213 which is equivalent to 1.04951e+07 triangles. 
[INFO] Material per faces size = 0 Materials size: 0 Material Strides size: 0
[INFO] Number of normals required: 30686679
[INFO] Number of normals recomputed:0
 [INFO] COMPUTING INTIAL TANGENTS FROM NORMALS 
[INFO] Checking Normal and Tangent Orthogonality in Mesh.cxx 
 [WARN] 23305008/30686679 invalid normals detected and corrected 
 [WARN] 20304772/30686679 invalid tangents detected and corrected 
 ************************ INFO ************************** 
  Time to load scene  :405.743 seconds 
 ******************************************************** 

 INSIDE /home/adufay/apps/iray renderer/../../mrf/rendering/thin_lens_camera.hpp 201
 _sensor Distance = 0.0362694
 Right Axis =  [ 0.815358; -0.0112963; 0.578848 ]   Up =  [ 0.101353; 0.987155; -0.1235 ]   Normalized Optical Axis =  [ 0.570017; -0.159365; -0.806029 ] 
Color background not yet supported in IRAY BACKEND
Option 0 scheduler_mode String = batch
Option 1 min_samples_per_update Uint32 = 1
Option 2 batch_update_interval Float32 = 1e+36
Option 3 interactive_update_interval Float32 = 0.0166667
Option 4 ui_responsiveness Float32 = 0.166667
  1.0   IRAY   rend info : Updating geometry.
  1.0   IRAY   rend info : Using OptiX Prime ray tracing (3.9.2).
  1.0   IRAY   rend info : Importing scene graph.
  1.0   IRAY   rend info : Importing geometry for motion time 0
  1.0   IRAY   rend info : Geometry import (1 object with 10496k triangles, 1 instance yielding 10496k triangles) took 5.845718
  1.0   IRAY   rend info : Updating materials.
  1.0   MATCNV rend info : found 0 textures, 0 lambdas (0 unique)
  1.0   IRAY   rend info : Emitter geometry import (1 light source with 2 triangles, 1 instance) took 0.00s
  1.0   IRAY   rend info : Updating environment.
  1.0   IRAY   rend info : Updating backplate.
  1.0   IRAY   rend info : Updating lens.
  1.0   IRAY   rend info : Updating lights.
  1.0   IRAY   rend info : Updating object flags.
  1.0   IRAY   rend info : Updating caustic portals.
  1.0   IRAY   rend info : Updating decals.
  1.0   IRAY   rend info : Allocating 1-layer frame buffer
  1.0   IRAY   rend info : Using batch scheduling, caustic sampler disabled
  1.0   IRAY   rend info : Initializing local rendering.
  1.0   IRAY   rend info : CPU: using 30 cores for rendering
  1.0   IRAY   rend info : Rendering with 3 device(s):
  1.0   IRAY   rend info : 	CUDA device 0 (Tesla P100-PCIE-16GB)
  1.0   IRAY   rend info : 	CUDA device 1 (Tesla P100-PCIE-16GB)
  1.0   IRAY   rend info : 	CPU
  1.0   IRAY   rend info : Rendering...
  1.7   IRAY   rend progr: CUDA device 0 (Tesla P100-PCIE-16GB): Processing scene...
  1.4   IRAY   rend progr: CUDA device 1 (Tesla P100-PCIE-16GB): Processing scene...
  1.2   IRAY   rend progr: CPU: Processing scene...
  1.24  IRAY   rend info : Using device 0 to build data for host
  1.3   IRAY   rend stat : Geometry memory consumption: 1.03183 GiB (device 0), 0 B (host)
  1.16  IRAY   rend stat : Geometry memory consumption: 1.03183 GiB (device 1), 0 B (host)
  1.3   IRAY   rend stat : Texture memory consumption: 0 B for 0 bitmaps (device 0)
  1.3   IRAY   rend info : Importing lights for motion time 0
  1.3   IRAY   rend info : Initializing light hierarchy.
  1.3   IRAY   rend info : Light hierarchy initialization took 0.01s
  1.16  IRAY   rend stat : Texture memory consumption: 0 B for 0 bitmaps (device 1)
  1.16  IRAY   rend stat : Lights memory consumption: 948 B (device 1)
  1.16  IRAY   rend stat : Material measurement memory consumption: 0 B (GPU)
  1.16  IRAY   rend stat : Materials memory consumption: 16.0156 KiB (GPU)
  1.4   IRAY   rend info : CUDA device 1 (Tesla P100-PCIE-16GB): Scene processed in 0.749s
  1.4   IRAY   rend info : CUDA device 1 (Tesla P100-PCIE-16GB): Allocated 17.5783 MiB for frame buffer
  1.4   IRAY   rend info : CUDA device 1 (Tesla P100-PCIE-16GB): Allocated 1.6875 GiB of work space (2048k active samples in 0.004s)
  1.24  IRAY   rend stat : Native CPU code generated in 2.15e-06s
  1.3   IRAY   rend stat : Lights memory consumption: 948 B (device 0)
  1.2   IRAY   rend info : CPU: Scene processed in 0.900s
  1.2   IRAY   rend info : CPU: Allocated 17.5783 MiB for frame buffer
  1.4   IRAY   rend info : Allocating 1-layer frame buffer
  1.7   IRAY   rend info : CUDA device 0 (Tesla P100-PCIE-16GB): Scene processed in 1.144s
  1.0   IRAY   rend info : Received update to 00001 iterations after 1.119s.
  1.7   IRAY   rend info : CUDA device 0 (Tesla P100-PCIE-16GB): Allocated 17.5783 MiB for frame buffer
  1.7   IRAY   rend info : CUDA device 0 (Tesla P100-PCIE-16GB): Allocated 1.6875 GiB of work space (2048k active samples in 0.003s)
  1.0   IRAY   rend info : Received update to 00002 iterations after 1.229s.
  1.0   IRAY   rend info : Received update to 00003 iterations after 1.307s.
  1.0   IRAY   rend info : Received update to 00005 iterations after 1.508s.
  1.0   IRAY   rend info : Received update to 00006 iterations after 1.546s.
  1.0   IRAY   rend info : Received update to 00008 iterations after 1.779s.
  1.0   IRAY   rend info : Received update to 00009 iterations after 1.980s.
  1.0   IRAY   rend info : Received update to 00013 iterations after 2.081s.
  1.0   IRAY   rend info : Received update to 00017 iterations after 2.226s.
  1.0   IRAY   rend info : Received update to 00018 iterations after 2.940s.
  1.0   IRAY   rend info : Received update to 00026 iterations after 2.974s.
  1.0   IRAY   rend info : Received update to 00034 iterations after 3.077s.
  1.0   IRAY   rend info : Received update to 00036 iterations after 4.826s.
  1.0   IRAY   rend info : Received update to 00052 iterations after 4.875s.
  1.0   IRAY   rend info : Received update to 00068 iterations after 4.961s.
  1.0   IRAY   rend info : Received update to 00100 iterations after 8.316s.
  1.0   IRAY   rend info : Received update to 00164 iterations after 15.378s.
  1.0   IRAY   rend info : Received update to 00260 iterations after 15.606s.
  1.0   IRAY   rend info : Received update to 00272 iterations after 15.870s.
  1.0   IRAY   rend info : Received update to 00280 iterations after 23.202s.
  1.0   IRAY   rend info : Received update to 00364 iterations after 24.175s.
  1.0   IRAY   rend info : Received update to 00443 iterations after 24.942s.
  1.0   IRAY   rend info : Received update to 00451 iterations after 30.407s.
  1.0   IRAY   rend info : Received update to 00509 iterations after 31.839s.
  1.0   IRAY   rend info : Received update to 00578 iterations after 32.633s.
  1.0   IRAY   rend info : Received update to 00584 iterations after 35.856s.
  1.0   IRAY   rend info : Received update to 00633 iterations after 37.568s.
  1.0   IRAY   rend info : Received update to 00678 iterations after 37.909s.
  1.0   IRAY   rend info : Received update to 00682 iterations after 39.462s.
  1.0   IRAY   rend info : Received update to 00716 iterations after 41.535s.
  1.0   IRAY   rend info : Received update to 00719 iterations after 42.197s.
  1.0   IRAY   rend info : Received update to 00757 iterations after 42.861s.
  1.0   IRAY   rend info : Received update to 00760 iterations after 44.869s.
  1.0   IRAY   rend info : Received update to 00790 iterations after 45.175s.
  1.0   IRAY   rend info : Received update to 00813 iterations after 45.966s.
  1.0   IRAY   rend info : Received update to 00815 iterations after 46.711s.
  1.0   IRAY   rend info : Received update to 00837 iterations after 47.451s.
  1.0   IRAY   rend info : Received update to 00854 iterations after 47.998s.
  1.0   IRAY   rend info : Received update to 00856 iterations after 48.553s.
  1.0   IRAY   rend info : Received update to 00874 iterations after 49.456s.
  1.0   IRAY   rend info : Received update to 00875 iterations after 49.487s.
  1.0   IRAY   rend info : Received update to 00889 iterations after 49.809s.
  1.0   IRAY   rend info : Received update to 00890 iterations after 50.425s.
  1.0   IRAY   rend info : Received update to 00904 iterations after 50.982s.
  1.0   IRAY   rend info : Received update to 00914 iterations after 51.295s.
  1.0   IRAY   rend info : Received update to 00915 iterations after 51.338s.
  1.0   IRAY   rend info : Received update to 00922 iterations after 52.018s.
  1.0   IRAY   rend info : Received update to 00932 iterations after 52.117s.
  1.0   IRAY   rend info : Received update to 00933 iterations after 52.295s.
  1.0   IRAY   rend info : Received update to 00941 iterations after 53.094s.
  1.0   IRAY   rend info : Received update to 00942 iterations after 53.225s.
  1.0   IRAY   rend info : Received update to 00949 iterations after 53.939s.
  1.0   IRAY   rend info : Received update to 00965 iterations after 54.033s.
  1.0   IRAY   rend info : Received update to 00966 iterations after 54.133s.
  1.0   IRAY   rend info : Received update to 00974 iterations after 54.819s.
  1.0   IRAY   rend info : Received update to 00982 iterations after 54.905s.
  1.0   IRAY   rend info : Received update to 00983 iterations after 55.083s.
  1.0   IRAY   rend info : Received update to 00991 iterations after 55.740s.
  1.0   IRAY   rend info : Received update to 00999 iterations after 55.762s.
  1.0   IRAY   rend info : Received update to 01000 iterations after 56.000s.
  1.0   IRAY   rend info : Maximum number of samples reached.
  1.0   IRAY   rend info : Rendering...
  1.0   IRAY   rend info : Received update to 01000 iterations after 56.010s.
  1.0   IRAY   rend info : Maximum number of samples reached.
Try to save Image in:san_miguel_10_3.png
  1.0   IMAGE  io   info : Saving image "san_miguel_10_3.png", pixel type "Rgba_16", 1280x720x1 pixels, 1 miplevel.
Try to save Image in:san_miguel_10_3.exr
  1.0   IMAGE  io   info : Saving image "san_miguel_10_3.exr", pixel type "Color", 1280x720x1 pixels, 1 miplevel.
  1.0   IRAY   rend info : Device statistics:
  1.0   IRAY   rend info : CUDA device 0 (Tesla P100-PCIE-16GB): 	 454 iterations, 1.232s init, 54.581s render
  1.0   IRAY   rend info : CUDA device 1 (Tesla P100-PCIE-16GB): 	 486 iterations, 0.818s init, 54.929s render
  1.0   IRAY   rend info : CPU: 	 60 iterations, 0.912s init, 55.090s render
  1.0   API    db   warn : Transaction is released without being committed or aborted. Automatically aborting.
